test_run_dir/SystemTopTester_should_pass/SystemTop.vcd
$date
2025-11-30T20:03+0000
$end
$version
0.2
$end
$comment

$end
$timescale 1ns  $end
$scope module SystemTop $end
 $var wire 1 ! dataMemory $end
 $var wire 1 + io_done $end
 $var wire 32 , io_testerDataMemDataRead $end
 $var wire 1 . io_start $end
 $var wire 16 5 io_testerDataMemAddress $end
 $var wire 1 C clock $end
 $var wire 1 H accelerator $end
 $var wire 1 I reset $end
 $var wire 1 S io_testerDataMemEnable $end
 $var wire 32 | io_testerDataMemDataWrite $end
 $var wire 1 } io_testerDataMemWriteEnable $end
  $scope module accelerator $end
   $var wire 16 # io_address $end
   $var wire 4 ) stateReg $end
   $var wire 1 3 clock $end
   $var wire 32 7 io_dataWrite $end
   $var wire 1 = onBorder $end
   $var wire 1 @ io_writeEnable $end
   $var wire 1 F nextDone $end
   $var wire 1 G io_start $end
   $var wire 1 J reset $end
   $var wire 32 N y $end
   $var wire 32 O x $end
   $var wire 1 V registers_37 $end
   $var wire 1 W registers_38 $end
   $var wire 1 X registers_35 $end
   $var wire 1 Y registers_36 $end
   $var wire 1 Z registers_33 $end
   $var wire 1 [ registers_34 $end
   $var wire 1 \ registers_31 $end
   $var wire 1 ] registers_32 $end
   $var wire 1 ^ registers_39 $end
   $var wire 1 _ registers_30 $end
   $var wire 1 ` registers_26 $end
   $var wire 1 a registers_27 $end
   $var wire 1 b registers_24 $end
   $var wire 1 c registers_25 $end
   $var wire 1 d registers_22 $end
   $var wire 1 e registers_23 $end
   $var wire 1 f registers_20 $end
   $var wire 1 g registers_21 $end
   $var wire 1 h registers_28 $end
   $var wire 1 i registers_29 $end
   $var wire 1 j registers_15 $end
   $var wire 1 k registers_16 $end
   $var wire 1 l registers_13 $end
   $var wire 1 m registers_14 $end
   $var wire 1 n registers_11 $end
   $var wire 1 o registers_12 $end
   $var wire 1 p registers_10 $end
   $var wire 1 q registers_19 $end
   $var wire 1 r registers_17 $end
   $var wire 1 s registers_18 $end
   $var wire 1 v registers_40 $end
   $var wire 1 w registers_41 $end
   $var wire 32 x io_dataRead $end
   $var wire 1 ~ registers_0 $end
   $var wire 1 "! registers_1 $end
   $var wire 1 "" registers_2 $end
   $var wire 1 "# registers_3 $end
   $var wire 1 "$ registers_4 $end
   $var wire 1 "% registers_5 $end
   $var wire 1 "& registers_6 $end
   $var wire 1 "' registers_7 $end
   $var wire 1 "( registers_8 $end
   $var wire 1 ") registers_9 $end
   $var wire 1 "* io_done $end
  $upscope $end
  $scope module dataMemory $end
   $var wire 1 % clock $end
   $var wire 16 ( io_testerAddress $end
   $var wire 16 2 io_address $end
   $var wire 32 ? memory $end
   $var wire 32 A io_dataWrite $end
   $var wire 32 D io_testerDataWrite $end
   $var wire 1 E io_testerWriteEnable $end
   $var wire 1 K io_writeEnable $end
   $var wire 32 T io_testerDataRead $end
   $var wire 1 t io_testerEnable $end
   $var wire 32 z io_dataRead $end
    $scope module memory $end
     $var wire 32 ' MPORT_1 $end
     $var wire 32 / MPORT $end
      $scope module MPORT_1 $end
       $var wire 16 " pipeline_addr_0 $end
       $var wire 1 $ clk $end
       $var wire 1 0 pipeline_valid_0 $end
       $var wire 1 4 valid $end
       $var wire 32 9 data $end
       $var wire 32 L pipeline_data_0 $end
       $var wire 16 P addr $end
       $var wire 1 y en $end
       $var wire 1 { mask $end
      $upscope $end
      $scope module MPORT $end
       $var wire 1 & valid $end
       $var wire 32 * data $end
       $var wire 16 8 addr $end
       $var wire 32 : pipeline_data_0 $end
       $var wire 1 > pipeline_valid_0 $end
       $var wire 1 Q clk $end
       $var wire 1 R mask $end
       $var wire 1 U en $end
       $var wire 16 u pipeline_addr_0 $end
      $upscope $end
      $scope module io_dataRead_MPORT $end
       $var wire 1 - clk $end
       $var wire 16 1 addr $end
       $var wire 32 ; data $end
       $var wire 1 B en $end
      $upscope $end
      $scope module io_testerDataRead_MPORT $end
       $var wire 1 6 clk $end
       $var wire 1 < en $end
       $var wire 32 M data $end
       $var wire 16 "+ addr $end
      $upscope $end
    $upscope $end
  $upscope $end
$upscope $end
$enddefinitions $end
$dumpvars
00
b00000000000000000000000000000000 *
03
b00000000000000000000000000000000 ,
04
b00000000000000000000000000000000 '
b0000000000000000 #
06
b0000000000000000 "
b0000000000000000 (
0<
0=
0>
b0000000000000000 1
0@
b00000000000000000000000000000000 ;
b00000000000000000000000000000000 :
0B
0C
b0000000000000000 5
b00000000000000000000000000000000 7
0E
0F
b00000000000000000000000000000000 9
b0000000000000000 2
0G
0H
b0000000000000000 8
0I
0J
0K
b00000000000000000000000000000000 /
0Q
0S
0U
0V
0W
0X
0Y
0Z
0[
0\
b0000 )
0]
0^
0_
0`
0a
0b
0c
0d
0e
0f
0g
0h
0i
0j
0k
0l
0m
0n
0o
0p
1R
0q
0r
0s
0t
0v
0w
0y
0}
0~
b0000000000000000 "+
1{
0"!
0""
0"#
0"$
0"%
0"&
0"'
0"(
0")
0"*
b00000000000000000000000000000000 z
b00000000000000000000000000000000 |
b0000000000000000 u
b00000000000000000000000000000000 x
b00000000000000000000000000000000 M
b00000000000000000000000000000000 L
b00000000000000000000000000000000 D
b00000000000000000000000000000000 ?
b00000000000000000000000000000000 A
b0000000000000000 P
0!
0$
0%
0&
0+
b00000000000000000000000000000000 T
b00000000000000000000000000000000 O
0-
b00000000000000000000000000000000 N
0.
$end
#0
1B
1I
1J
1=
#1
1Q
13
1C
1$
1%
16
1-
#6
0B
0C
0$
0%
1E
1&
0I
0J
0-
0Q
03
1S
1t
1U
06
1<
1}
#11
1Q
13
1C
1$
1%
16
1-
1>
#16
0Q
03
0C
0$
0%
b0000000000000001 5
06
b0000000000000001 (
b0000000000000001 8
b0000000000000001 "+
0-
#21
1Q
13
1C
1$
1%
b0000000000000001 u
16
1-
#26
0Q
03
0C
0$
0%
b0000000000000010 5
06
b0000000000000010 (
b0000000000000010 8
b0000000000000010 "+
0-
#31
1Q
13
1C
1$
1%
b0000000000000010 u
16
1-
#36
0Q
03
0C
0$
0%
b0000000000000011 5
06
b0000000000000011 (
b0000000000000011 8
b0000000000000011 "+
0-
#41
1Q
13
1C
1$
1%
b0000000000000011 u
16
1-
#46
0Q
03
0C
0$
0%
b0000000000000100 5
06
b0000000000000100 (
b0000000000000100 8
b0000000000000100 "+
0-
#51
1Q
13
1C
1$
1%
b0000000000000100 u
16
1-
#56
0Q
03
0C
0$
0%
b0000000000000101 5
06
b0000000000000101 (
b0000000000000101 8
b0000000000000101 "+
0-
#61
1Q
13
1C
1$
1%
b0000000000000101 u
16
1-
#66
0Q
03
0C
0$
0%
b0000000000000110 5
06
b0000000000000110 (
b0000000000000110 8
b0000000000000110 "+
0-
#71
1Q
13
1C
1$
1%
b0000000000000110 u
16
1-
#76
0Q
03
0C
0$
0%
b0000000000000111 5
06
b0000000000000111 (
b0000000000000111 8
b0000000000000111 "+
0-
#81
1Q
13
1C
1$
1%
b0000000000000111 u
16
1-
#86
0Q
03
0C
0$
0%
b0000000000001000 5
06
b0000000000001000 (
b0000000000001000 8
b0000000000001000 "+
0-
#91
1Q
13
1C
1$
1%
b0000000000001000 u
16
1-
#96
0Q
03
0C
0$
0%
b0000000000001001 5
06
b0000000000001001 (
b0000000000001001 8
b0000000000001001 "+
0-
#101
1Q
13
1C
1$
1%
b0000000000001001 u
16
1-
#106
0Q
03
0C
0$
0%
b0000000000001010 5
06
b0000000000001010 (
b0000000000001010 8
b0000000000001010 "+
0-
#111
1Q
13
1C
1$
1%
b0000000000001010 u
16
1-
#116
0Q
03
0C
0$
0%
b0000000000001011 5
06
b0000000000001011 (
b0000000000001011 8
b0000000000001011 "+
0-
#121
1Q
13
1C
1$
1%
b0000000000001011 u
16
1-
#126
0Q
03
0C
0$
0%
b0000000000001100 5
06
b0000000000001100 (
b0000000000001100 8
b0000000000001100 "+
0-
#131
1Q
13
1C
1$
1%
b0000000000001100 u
16
1-
#136
0Q
03
0C
0$
0%
b0000000000001101 5
06
b0000000000001101 (
b0000000000001101 8
b0000000000001101 "+
0-
#141
1Q
13
1C
1$
1%
b0000000000001101 u
16
1-
#146
0Q
03
0C
0$
0%
b0000000000001110 5
06
b0000000000001110 (
b0000000000001110 8
b0000000000001110 "+
0-
#151
1Q
13
1C
1$
1%
b0000000000001110 u
16
1-
#156
0Q
03
0C
0$
0%
b0000000000001111 5
06
b0000000000001111 (
b0000000000001111 8
b0000000000001111 "+
0-
#161
1Q
13
1C
1$
1%
b0000000000001111 u
16
1-
#166
0Q
03
0C
0$
0%
b0000000000010000 5
06
b0000000000010000 (
b0000000000010000 8
b0000000000010000 "+
0-
#171
1Q
13
1C
1$
1%
b0000000000010000 u
16
1-
#176
0Q
03
0C
0$
0%
b0000000000010001 5
06
b0000000000010001 (
b0000000000010001 8
b0000000000010001 "+
0-
#181
1Q
13
1C
1$
1%
b0000000000010001 u
16
1-
#186
0Q
03
0C
0$
0%
b0000000000010010 5
06
b0000000000010010 (
b0000000000010010 8
b0000000000010010 "+
0-
#191
1Q
13
1C
1$
1%
b0000000000010010 u
16
1-
#196
0Q
03
0C
0$
0%
b0000000000010011 5
06
b0000000000010011 (
b0000000000010011 8
b0000000000010011 "+
0-
#201
1Q
13
1C
1$
1%
b0000000000010011 u
16
1-
#206
0Q
03
0C
0$
0%
b0000000000010100 5
06
b0000000000010100 (
b0000000000010100 8
b0000000000010100 "+
0-
#211
1Q
13
1C
1$
1%
b0000000000010100 u
16
1-
#216
0Q
03
0C
0$
0%
b0000000000010101 5
06
b0000000000010101 (
b0000000000010101 8
b0000000000010101 "+
0-
#221
1Q
13
1C
1$
1%
b0000000000010101 u
16
1-
#226
0Q
03
0C
0$
0%
b0000000000010110 5
06
b0000000000010110 (
b0000000000010110 8
b0000000000010110 "+
0-
#231
1Q
13
1C
1$
1%
b0000000000010110 u
16
1-
#236
0Q
03
0C
0$
0%
b0000000000010111 5
06
b0000000000010111 (
b0000000000010111 8
b0000000000010111 "+
0-
#241
1Q
13
1C
1$
1%
b0000000000010111 u
16
1-
#246
0Q
03
0C
0$
0%
b0000000000011000 5
06
b0000000000011000 (
b0000000000011000 8
b0000000000011000 "+
0-
#251
1Q
13
1C
1$
1%
b0000000000011000 u
16
1-
#256
0Q
03
0C
0$
0%
b0000000000011001 5
06
b0000000000011001 (
b0000000000011001 8
b0000000000011001 "+
0-
#261
1Q
13
1C
1$
1%
b0000000000011001 u
16
1-
#266
0Q
03
0C
0$
0%
b0000000000011010 5
06
b0000000000011010 (
b0000000000011010 8
b0000000000011010 "+
0-
#271
1Q
13
1C
1$
1%
b0000000000011010 u
16
1-
#276
0Q
03
0C
0$
0%
b0000000000011011 5
06
b0000000000011011 (
b0000000000011011 8
b0000000000011011 "+
0-
#281
1Q
13
1C
1$
1%
b0000000000011011 u
16
1-
#286
0Q
03
0C
0$
0%
b0000000000011100 5
06
b0000000000011100 (
b0000000000011100 8
b0000000000011100 "+
0-
#291
1Q
13
1C
1$
1%
b0000000000011100 u
16
1-
#296
0Q
03
0C
0$
0%
b0000000000011101 5
06
b0000000000011101 (
b0000000000011101 8
b0000000000011101 "+
0-
#301
1Q
13
1C
1$
1%
b0000000000011101 u
16
1-
#306
0Q
03
0C
0$
0%
b0000000000011110 5
06
b0000000000011110 (
b0000000000011110 8
b0000000000011110 "+
0-
#311
1Q
13
1C
1$
1%
b0000000000011110 u
16
1-
#316
0Q
03
0C
0$
0%
b0000000000011111 5
06
b0000000000011111 (
b0000000000011111 8
b0000000000011111 "+
0-
#321
1Q
13
1C
1$
1%
b0000000000011111 u
16
1-
#326
0Q
03
0C
0$
0%
b0000000000100000 5
06
b0000000000100000 (
b0000000000100000 8
b0000000000100000 "+
0-
#331
1Q
13
1C
1$
1%
b0000000000100000 u
16
1-
#336
0Q
03
0C
0$
0%
b0000000000100001 5
06
b0000000000100001 (
b0000000000100001 8
b0000000000100001 "+
0-
#341
1Q
13
1C
1$
1%
b0000000000100001 u
16
1-
#346
0Q
03
0C
0$
0%
b0000000000100010 5
06
b0000000000100010 (
b0000000000100010 8
b0000000000100010 "+
0-
#351
1Q
13
1C
1$
1%
b0000000000100010 u
16
1-
#356
0Q
03
0C
0$
0%
b0000000000100011 5
06
b0000000000100011 (
b0000000000100011 8
b0000000000100011 "+
0-
#361
1Q
13
1C
1$
1%
b0000000000100011 u
16
1-
#366
0Q
03
0C
0$
0%
b0000000000100100 5
06
b0000000000100100 (
b0000000000100100 8
b0000000000100100 "+
0-
#371
1Q
13
1C
1$
1%
b0000000000100100 u
16
1-
#376
0Q
03
0C
0$
0%
b0000000000100101 5
06
b0000000000100101 (
b0000000000100101 8
b0000000000100101 "+
0-
#381
1Q
13
1C
1$
1%
b0000000000100101 u
16
1-
#386
0Q
03
0C
0$
0%
b0000000000100110 5
06
b0000000000100110 (
b0000000000100110 8
b0000000000100110 "+
0-
#391
1Q
13
1C
1$
1%
b0000000000100110 u
16
1-
#396
0Q
03
0C
0$
0%
b0000000000100111 5
06
b0000000000100111 (
b0000000000100111 8
b0000000000100111 "+
0-
#401
1Q
13
1C
1$
1%
b0000000000100111 u
16
1-
#406
0Q
03
0C
0$
0%
b0000000000101000 5
06
b0000000000101000 (
b0000000000101000 8
b0000000000101000 "+
0-
#411
1Q
13
1C
1$
1%
b0000000000101000 u
16
1-
#416
0Q
03
0C
0$
0%
b0000000000101001 5
06
b0000000000101001 (
b0000000000101001 8
b0000000000101001 "+
0-
#421
1Q
13
1C
1$
1%
b0000000000101001 u
16
1-
#426
0Q
03
0C
0$
0%
b0000000000101010 5
06
b0000000000101010 (
b0000000000101010 8
b0000000000101010 "+
0-
#431
1Q
13
1C
1$
1%
b0000000000101010 u
16
1-
#436
0Q
03
0C
0$
0%
b0000000000101011 5
06
b0000000000101011 (
b0000000000101011 8
b0000000000101011 "+
0-
#441
1Q
13
1C
1$
1%
b0000000000101011 u
16
1-
#446
0Q
03
0C
0$
0%
b0000000000101100 5
06
b0000000000101100 (
b0000000000101100 8
b0000000000101100 "+
0-
#451
1Q
13
1C
1$
1%
b0000000000101100 u
16
1-
#456
0Q
03
0C
0$
0%
b0000000000101101 5
06
b0000000000101101 (
b0000000000101101 8
b0000000000101101 "+
0-
#461
1Q
13
1C
1$
1%
b0000000000101101 u
16
1-
#466
0Q
03
0C
0$
0%
b0000000000101110 5
06
b0000000000101110 (
b0000000000101110 8
b0000000000101110 "+
0-
#471
1Q
13
1C
1$
1%
b0000000000101110 u
16
1-
#476
0Q
03
0C
0$
0%
b0000000000101111 5
06
b0000000000101111 (
b0000000000101111 8
b0000000000101111 "+
0-
#481
1Q
13
1C
1$
1%
b0000000000101111 u
16
1-
#486
0Q
03
0C
0$
0%
b0000000000110000 5
06
b0000000000110000 (
b0000000000110000 8
b0000000000110000 "+
0-
#491
1Q
13
1C
1$
1%
b0000000000110000 u
16
1-
#496
0Q
03
0C
0$
0%
b0000000000110001 5
06
b0000000000110001 (
b0000000000110001 8
b0000000000110001 "+
0-
#501
1Q
13
1C
1$
1%
b0000000000110001 u
16
1-
#506
0Q
03
0C
0$
0%
b0000000000110010 5
06
b0000000000110010 (
b0000000000110010 8
b0000000000110010 "+
0-
#511
1Q
13
1C
1$
1%
b0000000000110010 u
16
1-
#516
0Q
03
0C
0$
0%
b0000000000110011 5
06
b0000000000110011 (
b0000000000110011 8
b0000000000110011 "+
0-
#521
1Q
13
1C
1$
1%
b0000000000110011 u
16
1-
#526
0Q
03
0C
0$
0%
b0000000000110100 5
06
b0000000000110100 (
b0000000000110100 8
b0000000000110100 "+
0-
#531
1Q
13
1C
1$
1%
b0000000000110100 u
16
1-
#536
0Q
03
0C
0$
0%
b0000000000110101 5
06
b0000000000110101 (
b0000000000110101 8
b0000000000110101 "+
0-
#541
1Q
13
1C
1$
1%
b0000000000110101 u
16
1-
#546
0Q
03
0C
0$
0%
b0000000000110110 5
06
b0000000000110110 (
b0000000000110110 8
b0000000000110110 "+
0-
#551
1Q
13
1C
1$
1%
b0000000000110110 u
16
1-
#556
0Q
03
0C
0$
0%
b0000000000110111 5
06
b0000000000110111 (
b0000000000110111 8
b0000000000110111 "+
0-
#561
1Q
13
1C
1$
1%
b0000000000110111 u
16
1-
#566
0Q
03
0C
0$
0%
b0000000000111000 5
06
b0000000000111000 (
b0000000000111000 8
b0000000000111000 "+
0-
#571
1Q
13
1C
1$
1%
b0000000000111000 u
16
1-
#576
0Q
03
0C
0$
0%
b0000000000111001 5
06
b0000000000111001 (
b0000000000111001 8
b0000000000111001 "+
0-
#581
1Q
13
1C
1$
1%
b0000000000111001 u
16
1-
#586
0Q
03
0C
0$
0%
b0000000000111010 5
06
b0000000000111010 (
b0000000000111010 8
b0000000000111010 "+
0-
#591
1Q
13
1C
1$
1%
b0000000000111010 u
16
1-
#596
0Q
03
0C
0$
0%
b0000000000111011 5
06
b0000000000111011 (
b0000000000111011 8
b0000000000111011 "+
0-
#601
1Q
13
1C
1$
1%
b0000000000111011 u
16
1-
#606
0Q
03
0C
0$
0%
b0000000000111100 5
06
b0000000000111100 (
b0000000000111100 8
b0000000000111100 "+
0-
#611
1Q
13
1C
1$
1%
b0000000000111100 u
16
1-
#616
0Q
03
0C
0$
0%
b0000000000111101 5
06
b0000000000111101 (
b0000000000111101 8
b0000000000111101 "+
0-
#621
1Q
13
1C
1$
1%
b0000000000111101 u
16
1-
#626
0Q
03
0C
0$
0%
b0000000000111110 5
06
b0000000000111110 (
b0000000000111110 8
b0000000000111110 "+
0-
#631
1Q
13
1C
1$
1%
b0000000000111110 u
16
1-
#636
0Q
03
0C
0$
0%
b0000000000111111 5
06
b0000000000111111 (
b0000000000111111 8
b0000000000111111 "+
0-
#641
1Q
13
1C
1$
1%
b0000000000111111 u
16
1-
#646
0Q
03
0C
0$
0%
b0000000001000000 5
06
b0000000001000000 (
b0000000001000000 8
b0000000001000000 "+
0-
#651
1Q
13
1C
1$
1%
b0000000001000000 u
16
1-
#656
0Q
03
0C
0$
0%
b0000000001000001 5
06
b0000000001000001 (
b0000000001000001 8
b0000000001000001 "+
0-
#661
1Q
13
1C
1$
1%
b0000000001000001 u
16
1-
#666
0Q
03
0C
0$
0%
b0000000001000010 5
06
b0000000001000010 (
b0000000001000010 8
b0000000001000010 "+
0-
#671
1Q
13
1C
1$
1%
b0000000001000010 u
16
1-
#676
0Q
03
0C
0$
0%
b0000000001000011 5
06
b0000000001000011 (
b0000000001000011 8
b0000000001000011 "+
0-
#681
1Q
13
1C
1$
1%
b0000000001000011 u
16
1-
#686
0Q
03
0C
0$
0%
b0000000001000100 5
06
b0000000001000100 (
b0000000001000100 8
b0000000001000100 "+
0-
#691
1Q
13
1C
1$
1%
b0000000001000100 u
16
1-
#696
0Q
03
0C
0$
0%
b0000000001000101 5
06
b0000000001000101 (
b0000000001000101 8
b0000000001000101 "+
0-
#701
1Q
13
1C
1$
1%
b0000000001000101 u
16
1-
#706
0Q
03
0C
0$
0%
b0000000001000110 5
06
b0000000001000110 (
b0000000001000110 8
b0000000001000110 "+
0-
#711
1Q
13
1C
1$
1%
b0000000001000110 u
16
1-
#716
0Q
03
0C
0$
0%
b0000000001000111 5
06
b0000000001000111 (
b0000000001000111 8
b0000000001000111 "+
0-
#721
1Q
13
1C
1$
1%
b0000000001000111 u
16
1-
#726
0Q
03
0C
0$
0%
b0000000001001000 5
06
b0000000001001000 (
b0000000001001000 8
b0000000001001000 "+
0-
#731
1Q
13
1C
1$
1%
b0000000001001000 u
16
1-
#736
0Q
03
0C
0$
0%
b0000000001001001 5
06
b0000000001001001 (
b0000000001001001 8
b0000000001001001 "+
0-
#741
1Q
13
1C
1$
1%
b0000000001001001 u
16
1-
#746
0Q
03
0C
0$
0%
b0000000001001010 5
06
b0000000001001010 (
b0000000001001010 8
b0000000001001010 "+
0-
#751
1Q
13
1C
1$
1%
b0000000001001010 u
16
1-
#756
0Q
03
0C
0$
0%
b0000000001001011 5
06
b0000000001001011 (
b0000000001001011 8
b0000000001001011 "+
0-
#761
1Q
13
1C
1$
1%
b0000000001001011 u
16
1-
#766
0Q
03
0C
0$
0%
b0000000001001100 5
06
b0000000001001100 (
b0000000001001100 8
b0000000001001100 "+
0-
#771
1Q
13
1C
1$
1%
b0000000001001100 u
16
1-
#776
0Q
03
0C
0$
0%
b0000000001001101 5
06
b0000000001001101 (
b0000000001001101 8
b0000000001001101 "+
0-
#781
1Q
13
1C
1$
1%
b0000000001001101 u
16
1-
#786
0Q
03
0C
0$
0%
b0000000001001110 5
06
b0000000001001110 (
b0000000001001110 8
b0000000001001110 "+
0-
#791
1Q
13
1C
1$
1%
b0000000001001110 u
16
1-
#796
0Q
03
0C
0$
0%
b0000000001001111 5
06
b0000000001001111 (
b0000000001001111 8
b0000000001001111 "+
0-
#801
1Q
13
1C
1$
1%
b0000000001001111 u
16
1-
#806
0Q
03
0C
0$
0%
b0000000001010000 5
06
b0000000001010000 (
b0000000001010000 8
b0000000001010000 "+
0-
#811
1Q
13
1C
1$
1%
b0000000001010000 u
16
1-
#816
0Q
03
0C
0$
0%
b0000000001010001 5
06
b0000000001010001 (
b0000000001010001 8
b0000000001010001 "+
0-
#821
1Q
13
1C
1$
1%
b0000000001010001 u
16
1-
#826
0Q
03
0C
0$
0%
b0000000001010010 5
06
b0000000001010010 (
b0000000001010010 8
b0000000001010010 "+
0-
#831
1Q
13
1C
1$
1%
b0000000001010010 u
16
1-
#836
0Q
03
0C
0$
0%
b0000000001010011 5
06
b0000000001010011 (
b0000000001010011 8
b0000000001010011 "+
0-
#841
1Q
13
1C
1$
1%
b0000000001010011 u
16
1-
#846
0Q
03
0C
0$
0%
b0000000001010100 5
06
b0000000001010100 (
b0000000001010100 8
b0000000001010100 "+
0-
#851
1Q
13
1C
1$
1%
b0000000001010100 u
16
1-
#856
0Q
03
0C
0$
0%
b0000000001010101 5
06
b0000000001010101 (
b0000000001010101 8
b0000000001010101 "+
0-
#861
1Q
13
1C
1$
1%
b0000000001010101 u
16
1-
#866
0Q
03
0C
0$
0%
b0000000001010110 5
06
b0000000001010110 (
b0000000001010110 8
b0000000001010110 "+
0-
#871
1Q
13
1C
1$
1%
b0000000001010110 u
16
1-
#876
0Q
03
0C
0$
0%
b0000000001010111 5
06
b0000000001010111 (
b0000000001010111 8
b0000000001010111 "+
0-
#881
1Q
13
1C
1$
1%
b0000000001010111 u
16
1-
#886
0Q
03
0C
0$
0%
b0000000001011000 5
06
b0000000001011000 (
b0000000001011000 8
b0000000001011000 "+
0-
#891
1Q
13
1C
1$
1%
b0000000001011000 u
16
1-
#896
0Q
03
0C
0$
0%
b0000000001011001 5
06
b0000000001011001 (
b0000000001011001 8
b0000000001011001 "+
0-
#901
1Q
13
1C
1$
1%
b0000000001011001 u
16
1-
#906
0Q
03
0C
0$
0%
b0000000001011010 5
06
b0000000001011010 (
b0000000001011010 8
b0000000001011010 "+
0-
#911
1Q
13
1C
1$
1%
b0000000001011010 u
16
1-
#916
0Q
03
0C
0$
0%
b0000000001011011 5
06
b0000000001011011 (
b0000000001011011 8
b0000000001011011 "+
0-
#921
1Q
13
1C
1$
1%
b0000000001011011 u
16
1-
#926
0Q
03
0C
0$
0%
b0000000001011100 5
06
b0000000001011100 (
b0000000001011100 8
b0000000001011100 "+
0-
#931
1Q
13
1C
1$
1%
b0000000001011100 u
16
1-
#936
0Q
03
0C
0$
0%
b0000000001011101 5
06
b0000000001011101 (
b0000000001011101 8
b0000000001011101 "+
0-
#941
1Q
13
1C
1$
1%
b0000000001011101 u
16
1-
#946
0Q
03
0C
0$
0%
b0000000001011110 5
06
b0000000001011110 (
b0000000001011110 8
b0000000001011110 "+
0-
#951
1Q
13
1C
1$
1%
b0000000001011110 u
16
1-
#956
0Q
03
0C
0$
0%
b0000000001011111 5
06
b0000000001011111 (
b0000000001011111 8
b0000000001011111 "+
0-
#961
1Q
13
1C
1$
1%
b0000000001011111 u
16
1-
#966
0Q
03
0C
0$
0%
b0000000001100000 5
06
b0000000001100000 (
b0000000001100000 8
b0000000001100000 "+
0-
#971
1Q
13
1C
1$
1%
b0000000001100000 u
16
1-
#976
0C
0$
b00000000000000000000000011111111 D
0%
b0000000001100001 (
b0000000001100001 "+
b00000000000000000000000011111111 *
b00000000000000000000000011111111 ,
0-
0Q
03
b00000000000000000000000011111111 T
b0000000001100001 5
06
b0000000001100001 8
b00000000000000000000000011111111 |
#981
1Q
13
1C
1$
1%
b0000000001100001 u
16
b00000000000000000000000011111111 :
1-
b00000000000000000000000011111111 M
#986
0C
0$
b00000000000000000000000000000000 D
0%
b0000000001100010 (
b0000000001100010 "+
b00000000000000000000000000000000 *
b00000000000000000000000000000000 ,
0-
b00000000000000000000000000000000 M
0Q
03
b00000000000000000000000000000000 T
b0000000001100010 5
06
b0000000001100010 8
b00000000000000000000000000000000 |
#991
1Q
13
1C
1$
1%
b0000000001100010 u
16
b00000000000000000000000000000000 :
1-
#996
0Q
03
0C
0$
0%
b0000000001100011 5
06
b0000000001100011 (
b0000000001100011 8
b0000000001100011 "+
0-
#1001
1Q
13
1C
1$
1%
b0000000001100011 u
16
1-
#1006
0Q
03
0C
0$
0%
b0000000001100100 5
06
b0000000001100100 (
b0000000001100100 8
b0000000001100100 "+
0-
#1011
1Q
13
1C
1$
1%
b0000000001100100 u
16
1-
#1016
0Q
03
0C
0$
0%
b0000000001100101 5
06
b0000000001100101 (
b0000000001100101 8
b0000000001100101 "+
0-
#1021
1Q
13
1C
1$
1%
b0000000001100101 u
16
1-
#1026
0C
0$
b00000000000000000000000011111111 D
0%
b0000000001100110 (
b0000000001100110 "+
b00000000000000000000000011111111 *
b00000000000000000000000011111111 ,
0-
0Q
03
b00000000000000000000000011111111 T
b0000000001100110 5
06
b0000000001100110 8
b00000000000000000000000011111111 |
#1031
1Q
13
1C
1$
1%
b0000000001100110 u
16
b00000000000000000000000011111111 :
1-
b00000000000000000000000011111111 M
#1036
0C
0$
b00000000000000000000000000000000 D
0%
b0000000001100111 (
b0000000001100111 "+
b00000000000000000000000000000000 *
b00000000000000000000000000000000 ,
0-
b00000000000000000000000000000000 M
0Q
03
b00000000000000000000000000000000 T
b0000000001100111 5
06
b0000000001100111 8
b00000000000000000000000000000000 |
#1041
1Q
13
1C
1$
1%
b0000000001100111 u
16
b00000000000000000000000000000000 :
1-
#1046
0Q
03
0C
0$
0%
b0000000001101000 5
06
b0000000001101000 (
b0000000001101000 8
b0000000001101000 "+
0-
#1051
1Q
13
1C
1$
1%
b0000000001101000 u
16
1-
#1056
0Q
03
0C
0$
0%
b0000000001101001 5
06
b0000000001101001 (
b0000000001101001 8
b0000000001101001 "+
0-
#1061
1Q
13
1C
1$
1%
b0000000001101001 u
16
1-
#1066
0Q
03
0C
0$
0%
b0000000001101010 5
06
b0000000001101010 (
b0000000001101010 8
b0000000001101010 "+
0-
#1071
1Q
13
1C
1$
1%
b0000000001101010 u
16
1-
#1076
0Q
03
0C
0$
0%
b0000000001101011 5
06
b0000000001101011 (
b0000000001101011 8
b0000000001101011 "+
0-
#1081
1Q
13
1C
1$
1%
b0000000001101011 u
16
1-
#1086
0Q
03
0C
0$
0%
b0000000001101100 5
06
b0000000001101100 (
b0000000001101100 8
b0000000001101100 "+
0-
#1091
1Q
13
1C
1$
1%
b0000000001101100 u
16
1-
#1096
0Q
03
0C
0$
0%
b0000000001101101 5
06
b0000000001101101 (
b0000000001101101 8
b0000000001101101 "+
0-
#1101
1Q
13
1C
1$
1%
b0000000001101101 u
16
1-
#1106
0Q
03
0C
0$
0%
b0000000001101110 5
06
b0000000001101110 (
b0000000001101110 8
b0000000001101110 "+
0-
#1111
1Q
13
1C
1$
1%
b0000000001101110 u
16
1-
#1116
0Q
03
0C
0$
0%
b0000000001101111 5
06
b0000000001101111 (
b0000000001101111 8
b0000000001101111 "+
0-
#1121
1Q
13
1C
1$
1%
b0000000001101111 u
16
1-
#1126
0Q
03
0C
0$
0%
b0000000001110000 5
06
b0000000001110000 (
b0000000001110000 8
b0000000001110000 "+
0-
#1131
1Q
13
1C
1$
1%
b0000000001110000 u
16
1-
#1136
0Q
03
0C
0$
0%
b0000000001110001 5
06
b0000000001110001 (
b0000000001110001 8
b0000000001110001 "+
0-
#1141
1Q
13
1C
1$
1%
b0000000001110001 u
16
1-
#1146
0Q
03
0C
0$
0%
b0000000001110010 5
06
b0000000001110010 (
b0000000001110010 8
b0000000001110010 "+
0-
#1151
1Q
13
1C
1$
1%
b0000000001110010 u
16
1-
#1156
0Q
03
0C
0$
0%
b0000000001110011 5
06
b0000000001110011 (
b0000000001110011 8
b0000000001110011 "+
0-
#1161
1Q
13
1C
1$
1%
b0000000001110011 u
16
1-
#1166
0C
0$
b00000000000000000000000011111111 D
0%
b0000000001110100 (
b0000000001110100 "+
b00000000000000000000000011111111 *
b00000000000000000000000011111111 ,
0-
0Q
03
b00000000000000000000000011111111 T
b0000000001110100 5
06
b0000000001110100 8
b00000000000000000000000011111111 |
#1171
1Q
13
1C
1$
1%
b0000000001110100 u
16
b00000000000000000000000011111111 :
1-
b00000000000000000000000011111111 M
#1176
0C
0$
0%
b0000000001110101 (
b0000000001110101 "+
0-
b00000000000000000000000000000000 M
0Q
03
b0000000001110101 5
06
b0000000001110101 8
#1181
1Q
13
1C
1$
1%
b0000000001110101 u
16
1-
b00000000000000000000000011111111 M
#1186
0C
0$
0%
b0000000001110110 (
b0000000001110110 "+
0-
b00000000000000000000000000000000 M
0Q
03
b0000000001110110 5
06
b0000000001110110 8
#1191
1Q
13
1C
1$
1%
b0000000001110110 u
16
1-
b00000000000000000000000011111111 M
